%YAML 1.1
%TAG !u! tag:unity3d.com,2011:
--- !u!1001 &5704290751395159229
PrefabInstance:
  m_ObjectHideFlags: 0
  serializedVersion: 2
  m_Modification:
    m_TransformParent: {fileID: 0}
    m_Modifications:
    - target: {fileID: 502660612764652333, guid: fcea7cfb50efba144bccfe3604933097,
        type: 3}
      propertyPath: m_IsActive
      value: 0
      objectReference: {fileID: 0}
    - target: {fileID: 752301286005749217, guid: fcea7cfb50efba144bccfe3604933097,
        type: 3}
      propertyPath: isCollidOnly
      value: 1
      objectReference: {fileID: 0}
    - target: {fileID: 998461515826297768, guid: fcea7cfb50efba144bccfe3604933097,
        type: 3}
      propertyPath: m_IsActive
      value: 0
      objectReference: {fileID: 0}
    - target: {fileID: 1249492331128364064, guid: fcea7cfb50efba144bccfe3604933097,
        type: 3}
      propertyPath: m_IsActive
      value: 0
      objectReference: {fileID: 0}
    - target: {fileID: 1672037145104271290, guid: fcea7cfb50efba144bccfe3604933097,
        type: 3}
      propertyPath: m_LocalPosition.x
      value: 0
      objectReference: {fileID: 0}
    - target: {fileID: 1672037145104271290, guid: fcea7cfb50efba144bccfe3604933097,
        type: 3}
      propertyPath: m_LocalPosition.y
      value: 0
      objectReference: {fileID: 0}
    - target: {fileID: 1672037145104271290, guid: fcea7cfb50efba144bccfe3604933097,
        type: 3}
      propertyPath: m_LocalPosition.z
      value: 0
      objectReference: {fileID: 0}
    - target: {fileID: 1672037145104271290, guid: fcea7cfb50efba144bccfe3604933097,
        type: 3}
      propertyPath: m_LocalRotation.x
      value: 0
      objectReference: {fileID: 0}
    - target: {fileID: 1672037145104271290, guid: fcea7cfb50efba144bccfe3604933097,
        type: 3}
      propertyPath: m_LocalRotation.y
      value: 0
      objectReference: {fileID: 0}
    - target: {fileID: 1672037145104271290, guid: fcea7cfb50efba144bccfe3604933097,
        type: 3}
      propertyPath: m_LocalRotation.z
      value: 0
      objectReference: {fileID: 0}
    - target: {fileID: 1672037145104271290, guid: fcea7cfb50efba144bccfe3604933097,
        type: 3}
      propertyPath: m_LocalRotation.w
      value: 1
      objectReference: {fileID: 0}
    - target: {fileID: 1672037145104271290, guid: fcea7cfb50efba144bccfe3604933097,
        type: 3}
      propertyPath: m_RootOrder
      value: 0
      objectReference: {fileID: 0}
    - target: {fileID: 1672037145104271290, guid: fcea7cfb50efba144bccfe3604933097,
        type: 3}
      propertyPath: m_LocalEulerAnglesHint.x
      value: 0
      objectReference: {fileID: 0}
    - target: {fileID: 1672037145104271290, guid: fcea7cfb50efba144bccfe3604933097,
        type: 3}
      propertyPath: m_LocalEulerAnglesHint.y
      value: 0
      objectReference: {fileID: 0}
    - target: {fileID: 1672037145104271290, guid: fcea7cfb50efba144bccfe3604933097,
        type: 3}
      propertyPath: m_LocalEulerAnglesHint.z
      value: 0
      objectReference: {fileID: 0}
    - target: {fileID: 2003254014003169600, guid: fcea7cfb50efba144bccfe3604933097,
        type: 3}
      propertyPath: m_IsActive
      value: 0
      objectReference: {fileID: 0}
    - target: {fileID: 5649726452515599994, guid: fcea7cfb50efba144bccfe3604933097,
        type: 3}
      propertyPath: m_IsActive
      value: 0
      objectReference: {fileID: 0}
    - target: {fileID: 5796533961614810844, guid: fcea7cfb50efba144bccfe3604933097,
        type: 3}
      propertyPath: m_IsActive
      value: 0
      objectReference: {fileID: 0}
    - target: {fileID: 6119235561442347519, guid: fcea7cfb50efba144bccfe3604933097,
        type: 3}
      propertyPath: m_IsActive
      value: 0
      objectReference: {fileID: 0}
    - target: {fileID: 6477924253650651648, guid: fcea7cfb50efba144bccfe3604933097,
        type: 3}
      propertyPath: m_IsActive
      value: 0
      objectReference: {fileID: 0}
    - target: {fileID: 7954775467557318661, guid: fcea7cfb50efba144bccfe3604933097,
        type: 3}
      propertyPath: m_IsActive
      value: 0
      objectReference: {fileID: 0}
    - target: {fileID: 8118277701959384458, guid: fcea7cfb50efba144bccfe3604933097,
        type: 3}
      propertyPath: m_Name
      value: pipe2
      objectReference: {fileID: 0}
    - target: {fileID: 8387687750821892090, guid: fcea7cfb50efba144bccfe3604933097,
        type: 3}
      propertyPath: m_IsActive
      value: 0
      objectReference: {fileID: 0}
    - target: {fileID: 8439123069965934833, guid: fcea7cfb50efba144bccfe3604933097,
        type: 3}
      propertyPath: m_IsActive
      value: 0
      objectReference: {fileID: 0}
    m_RemovedComponents: []
  m_SourcePrefab: {fileID: 100100000, guid: fcea7cfb50efba144bccfe3604933097, type: 3}
