%YAML 1.1
%TAG !u! tag:unity3d.com,2011:
--- !u!1001 &7429044516490836245
PrefabInstance:
  m_ObjectHideFlags: 0
  serializedVersion: 2
  m_Modification:
    m_TransformParent: {fileID: 0}
    m_Modifications:
    - target: {fileID: 752301286005749217, guid: fcea7cfb50efba144bccfe3604933097,
        type: 3}
      propertyPath: isCollidOnly
      value: 1
      objectReference: {fileID: 0}
    - target: {fileID: 752301286005749217, guid: fcea7cfb50efba144bccfe3604933097,
        type: 3}
      propertyPath: xSize
      value: 3
      objectReference: {fileID: 0}
    - target: {fileID: 1394852292740296003, guid: fcea7cfb50efba144bccfe3604933097,
        type: 3}
      propertyPath: m_IsActive
      value: 0
      objectReference: {fileID: 0}
    - target: {fileID: 1672037145104271290, guid: fcea7cfb50efba144bccfe3604933097,
        type: 3}
      propertyPath: m_LocalPosition.x
      value: 0
      objectReference: {fileID: 0}
    - target: {fileID: 1672037145104271290, guid: fcea7cfb50efba144bccfe3604933097,
        type: 3}
      propertyPath: m_LocalPosition.y
      value: 0
      objectReference: {fileID: 0}
    - target: {fileID: 1672037145104271290, guid: fcea7cfb50efba144bccfe3604933097,
        type: 3}
      propertyPath: m_LocalPosition.z
      value: 0
      objectReference: {fileID: 0}
    - target: {fileID: 1672037145104271290, guid: fcea7cfb50efba144bccfe3604933097,
        type: 3}
      propertyPath: m_LocalRotation.x
      value: 0
      objectReference: {fileID: 0}
    - target: {fileID: 1672037145104271290, guid: fcea7cfb50efba144bccfe3604933097,
        type: 3}
      propertyPath: m_LocalRotation.y
      value: 0
      objectReference: {fileID: 0}
    - target: {fileID: 1672037145104271290, guid: fcea7cfb50efba144bccfe3604933097,
        type: 3}
      propertyPath: m_LocalRotation.z
      value: 0
      objectReference: {fileID: 0}
    - target: {fileID: 1672037145104271290, guid: fcea7cfb50efba144bccfe3604933097,
        type: 3}
      propertyPath: m_LocalRotation.w
      value: 1
      objectReference: {fileID: 0}
    - target: {fileID: 1672037145104271290, guid: fcea7cfb50efba144bccfe3604933097,
        type: 3}
      propertyPath: m_RootOrder
      value: 0
      objectReference: {fileID: 0}
    - target: {fileID: 1672037145104271290, guid: fcea7cfb50efba144bccfe3604933097,
        type: 3}
      propertyPath: m_LocalEulerAnglesHint.x
      value: 0
      objectReference: {fileID: 0}
    - target: {fileID: 1672037145104271290, guid: fcea7cfb50efba144bccfe3604933097,
        type: 3}
      propertyPath: m_LocalEulerAnglesHint.y
      value: 0
      objectReference: {fileID: 0}
    - target: {fileID: 1672037145104271290, guid: fcea7cfb50efba144bccfe3604933097,
        type: 3}
      propertyPath: m_LocalEulerAnglesHint.z
      value: 0
      objectReference: {fileID: 0}
    - target: {fileID: 4636194093153323123, guid: fcea7cfb50efba144bccfe3604933097,
        type: 3}
      propertyPath: m_IsActive
      value: 0
      objectReference: {fileID: 0}
    - target: {fileID: 8118277701959384458, guid: fcea7cfb50efba144bccfe3604933097,
        type: 3}
      propertyPath: m_Name
      value: Wall1
      objectReference: {fileID: 0}
    - target: {fileID: 8421906401429108225, guid: fcea7cfb50efba144bccfe3604933097,
        type: 3}
      propertyPath: m_IsActive
      value: 0
      objectReference: {fileID: 0}
    m_RemovedComponents: []
  m_SourcePrefab: {fileID: 100100000, guid: fcea7cfb50efba144bccfe3604933097, type: 3}
