%YAML 1.1
%TAG !u! tag:unity3d.com,2011:
--- !u!1 &5135796689537611509
GameObject:
  m_ObjectHideFlags: 0
  m_CorrespondingSourceObject: {fileID: 0}
  m_PrefabInstance: {fileID: 0}
  m_PrefabAsset: {fileID: 0}
  serializedVersion: 6
  m_Component:
  - component: {fileID: 1332386931392353323}
  - component: {fileID: 8540021400364161933}
  m_Layer: 0
  m_Name: Input_1P
  m_TagString: Untagged
  m_Icon: {fileID: 0}
  m_NavMeshLayer: 0
  m_StaticEditorFlags: 0
  m_IsActive: 1
--- !u!4 &1332386931392353323
Transform:
  m_ObjectHideFlags: 0
  m_CorrespondingSourceObject: {fileID: 0}
  m_PrefabInstance: {fileID: 0}
  m_PrefabAsset: {fileID: 0}
  m_GameObject: {fileID: 5135796689537611509}
  m_LocalRotation: {x: -0, y: -0, z: -0, w: 1}
  m_LocalPosition: {x: 0, y: 0, z: 0}
  m_LocalScale: {x: 1, y: 1, z: 1}
  m_Children: []
  m_Father: {fileID: 0}
  m_RootOrder: 0
  m_LocalEulerAnglesHint: {x: 0, y: 0, z: 0}
--- !u!114 &8540021400364161933
MonoBehaviour:
  m_ObjectHideFlags: 0
  m_CorrespondingSourceObject: {fileID: 0}
  m_PrefabInstance: {fileID: 0}
  m_PrefabAsset: {fileID: 0}
  m_GameObject: {fileID: 5135796689537611509}
  m_Enabled: 1
  m_EditorHideFlags: 0
  m_Script: {fileID: 11500000, guid: c0e9301409c3dfb43806b424965d2ba3, type: 3}
  m_Name: 
  m_EditorClassIdentifier: 
  controllerNum: 1
  axisVertical: 1Vertical
  axisHorizontal: 1Horizontal
  buttonA: 1A
  buttonB: 1B
  buttonX: 1X
  buttonY: 1Y
  buttonL: 1L
  buttonR: 1R
  buttonLZ: 1LZ
  buttonRZ: 1RZ
  buttonLS: 1LS
  buttonRS: 1RS
  buttonPlus: 1PLUS
  buttonMinus: 1MINUS
  keyCodeUp: 273
  keyCodeDown: 274
  keyCodeLeft: 308
  keyCodeRight: 307
  keyCodeA: 122
  keyCodeB: 118
  keyCodeX: 120
  keyCodeY: 121
  keyCodeL: 97
  keyCodeR: 102
  keyCodeLZ: 113
  keyCodeRZ: 114
  keyCodeLS: 115
  keyCodeRS: 100
  keyCodePlus: 101
  keyCodeMinus: 119
  isShowBuffer: 0
