%YAML 1.1
%TAG !u! tag:unity3d.com,2011:
--- !u!1 &6928963925746546233
GameObject:
  m_ObjectHideFlags: 0
  m_CorrespondingSourceObject: {fileID: 0}
  m_PrefabInstance: {fileID: 0}
  m_PrefabAsset: {fileID: 0}
  serializedVersion: 6
  m_Component:
  - component: {fileID: 7979078165785487577}
  - component: {fileID: 3998299569862974650}
  m_Layer: 0
  m_Name: Input_2P
  m_TagString: Untagged
  m_Icon: {fileID: 0}
  m_NavMeshLayer: 0
  m_StaticEditorFlags: 0
  m_IsActive: 1
--- !u!4 &7979078165785487577
Transform:
  m_ObjectHideFlags: 0
  m_CorrespondingSourceObject: {fileID: 0}
  m_PrefabInstance: {fileID: 0}
  m_PrefabAsset: {fileID: 0}
  m_GameObject: {fileID: 6928963925746546233}
  m_LocalRotation: {x: -0, y: -0, z: -0, w: 1}
  m_LocalPosition: {x: 0, y: 0, z: 0}
  m_LocalScale: {x: 1, y: 1, z: 1}
  m_Children: []
  m_Father: {fileID: 0}
  m_RootOrder: 0
  m_LocalEulerAnglesHint: {x: 0, y: 0, z: 0}
--- !u!114 &3998299569862974650
MonoBehaviour:
  m_ObjectHideFlags: 0
  m_CorrespondingSourceObject: {fileID: 0}
  m_PrefabInstance: {fileID: 0}
  m_PrefabAsset: {fileID: 0}
  m_GameObject: {fileID: 6928963925746546233}
  m_Enabled: 1
  m_EditorHideFlags: 0
  m_Script: {fileID: 11500000, guid: c0e9301409c3dfb43806b424965d2ba3, type: 3}
  m_Name: 
  m_EditorClassIdentifier: 
  controllerNum: 2
  axisVertical: 2Vertical
  axisHorizontal: 2Horizontal
  buttonA: 2A
  buttonB: 2B
  buttonX: 2X
  buttonY: 2Y
  buttonL: 2L
  buttonR: 2R
  buttonLZ: 2LZ
  buttonRZ: 2RZ
  buttonLS: 2LS
  buttonRS: 2RS
  buttonPlus: 2PLUS
  buttonMinus: 2MINUS
  keyCodeUp: 273
  keyCodeDown: 274
  keyCodeLeft: 308
  keyCodeRight: 307
  keyCodeA: 122
  keyCodeB: 118
  keyCodeX: 120
  keyCodeY: 121
  keyCodeL: 97
  keyCodeR: 102
  keyCodeLZ: 113
  keyCodeRZ: 114
  keyCodeLS: 115
  keyCodeRS: 100
  keyCodePlus: 101
  keyCodeMinus: 119
  isShowBuffer: 0
