%YAML 1.1
%TAG !u! tag:unity3d.com,2011:
--- !u!1045 &1
EditorBuildSettings:
  m_ObjectHideFlags: 0
  serializedVersion: 2
  m_Scenes:
  - enabled: 1
    path: Assets/Boot.unity
    guid: 2358779e311b0cf408c0606faa979d9f
  - enabled: 1
    path: Assets/Title/Title.unity
    guid: fd4f8acbe9b93184f8b42a975adeeb89
  - enabled: 1
    path: Assets/StageSelect/StageSelect.unity
    guid: cf1e62c31ec2e58498675430e66a8c65
  - enabled: 1
    path: Assets/Main/Stage0.unity
    guid: 34b74ba27afc4a14a8cd7080613e1bae
  - enabled: 1
    path: Assets/Main/Stage1.unity
    guid: 2ed7dd939e325f7418b9546db130b047
  m_configObjects: {}
